…
filter(flights, dest == "IAH" | dest == "HOU")

## # A tibble: 9,313 x 19
##     year month   day dep_time sched_dep_time dep_delay arr_time
##    <int> <int> <int>    <int>          <int>     <dbl>    <int>
##  1  2013     1     1      517            515         2      830
##  2  2013     1     1      533            529         4      850
##  3  2013     1     1      623            627        -4      933
##  4  2013     1     1      728            732        -4     1041
##  5  2013     1     1      739            739         0     1104
##  6  2013     1     1      908            908         0     1228
##  7  2013     1     1     1028           1026         2     1350
##  8  2013     1     1     1044           1045        -1     1352
##  9  2013     1     1     1114            900       134     1447
## 10  2013     1     1     1205           1200         5     1503
## #  with 9,303 more rows, and 12 more variables: sched_arr_time <int>,
## #   arr_delay <dbl>, carrier <chr>, flight <int>, tailnum <chr>,
## #   origin <chr>, dest <chr>, air_time <dbl>, distance <dbl>, hour <dbl>,
## #   minute <dbl>, time_hour <dttm>

filter(flights, carrier %in% c("AA","UA","DL"))

## # A tibble: 139,504 x 19
##     year month   day dep_time sched_dep_time dep_delay arr_time
##    <int> <int> <int>    <int>          <int>     <dbl>    <int>
##  1  2013     1     1      517            515         2      830
##  2  2013     1     1      533            529         4      850
##  3  2013     1     1      542            540         2      923
##  4  2013     1     1      554            600        -6      812
##  5  2013     1     1      554            558        -4      740
##  6  2013     1     1      558            600        -2      753
##  7  2013     1     1      558            600        -2      924
##  8  2013     1     1      558            600        -2      923
##  9  2013     1     1      559            600        -1      941
## 10  2013     1     1      559            600        -1      854
## #  with 139,494 more rows, and 12 more variables: sched_arr_time <int>,
## #   arr_delay <dbl>, carrier <chr>, flight <int>, tailnum <chr>,
## #   origin <chr>, dest <chr>, air_time <dbl>, distance <dbl>, hour <dbl>,
## #   minute <dbl>, time_hour <dttm>

filter(flights, month %in% c(7,8,9))

## # A tibble: 86,326 x 19
##     year month   day dep_time sched_dep_time dep_delay arr_time
##    <int> <int> <int>    <int>          <int>     <dbl>    <int>
##  1  2013     7     1        1           2029       212      236
##  2  2013     7     1        2           2359         3      344
##  3  2013     7     1       29           2245       104      151
##  4  2013     7     1       43           2130       193      322
##  5  2013     7     1       44           2150       174      300
##  6  2013     7     1       46           2051       235      304
##  7  2013     7     1       48           2001       287      308
##  8  2013     7     1       58           2155       183      335
##  9  2013     7     1      100           2146       194      327
## 10  2013     7     1      100           2245       135      337
## #  with 86,316 more rows, and 12 more variables: sched_arr_time <int>,
## #   arr_delay <dbl>, carrier <chr>, flight <int>, tailnum <chr>,
## #   origin <chr>, dest <chr>, air_time <dbl>, distance <dbl>, hour <dbl>,
## #   minute <dbl>, time_hour <dttm>
…
## # A tibble: 3 x 19
##    year month   day dep_time sched_dep_time dep_delay arr_time
##   <int> <int> <int>    <int>          <int>     <dbl>    <int>
## 1  2013    10     7     1350           1350         0     1736
## 2  2013     5    23     1810           1810         0     2208
## 3  2013     7     1      905            905         0     1443
## #  with 12 more variables: sched_arr_time <int>, arr_delay <dbl>,
## #   carrier <chr>, flight <int>, tailnum <chr>, origin <chr>, dest <chr>,
## #   air_time <dbl>, distance <dbl>, hour <dbl>, minute <dbl>,
## #   time_hour <dttm>

filter(flights, dep_delay >= 60 & dep_delay - arr_delay > 30)

## # A tibble: 1,844 x 19
##     year month   day dep_time sched_dep_time dep_delay arr_time
##    <int> <int> <int>    <int>          <int>     <dbl>    <int>
##  1  2013     1     1     2205           1720       285       46
##  2  2013     1     1     2326           2130       116      131
##  3  2013     1     3     1503           1221       162     1803
##  4  2013     1     3     1839           1700        99     2056
##  5  2013     1     3     1850           1745        65     2148
##  6  2013     1     3     1941           1759       102     2246
##  7  2013     1     3     1950           1845        65     2228
##  8  2013     1     3     2015           1915        60     2135
##  9  2013     1     3     2257           2000       177       45
## 10  2013     1     4     1917           1700       137     2135
## #  with 1,834 more rows, and 12 more variables: sched_arr_time <int>,
## #   arr_delay <dbl>, carrier <chr>, flight <int>, tailnum <chr>,
## #   origin <chr>, dest <chr>, air_time <dbl>, distance <dbl>, hour <dbl>,
## #   minute <dbl>, time_hour <dttm>

filter(flights, dep_time %/% 100 %in% c(0:5) | dep_time == 600)

## # A tibble: 9,344 x 19
##     year month   day dep_time sched_dep_time dep_delay arr_time
##    <int> <int> <int>    <int>          <int>     <dbl>    <int>
##  1  2013     1     1      517            515         2      830
##  2  2013     1     1      533            529         4      850
##  3  2013     1     1      542            540         2      923
##  4  2013     1     1      544            545        -1     1004
##  5  2013     1     1      554            600        -6      812
##  6  2013     1     1      554            558        -4      740
##  7  2013     1     1      555            600        -5      913
##  8  2013     1     1      557            600        -3      709
##  9  2013     1     1      557            600        -3      838
## 10  2013     1     1      558            600        -2      753
## #  with 9,334 more rows, and 12 more variables: sched_arr_time <int>,
## #   arr_delay <dbl>, carrier <chr>, flight <int>, tailnum <chr>,
## #   origin <chr>, dest <chr>, air_time <dbl>, distance <dbl>, hour <dbl>,
## #   minute <dbl>, time_hour <dttm>

5.3.1 Exercises

1

arrange(flights, desc(is.na(dep_time)))

## # A tibble: 336,776 x 19
##     year month   day dep_time sched_dep_time dep_delay arr_time
##    <int> <int> <int>    <int>          <int>     <dbl>    <int>
##  1  2013     1     1       NA           1630        NA       NA
##  2  2013     1     1       NA           1935        NA       NA
##  3  2013     1     1       NA           1500        NA       NA
##  4  2013     1     1       NA            600        NA       NA
##  5  2013     1     2       NA           1540        NA       NA
##  6  2013     1     2       NA           1620        NA       NA
##  7  2013     1     2       NA           1355        NA       NA
##  8  2013     1     2       NA           1420        NA       NA
##  9  2013     1     2       NA           1321        NA       NA
## 10  2013     1     2       NA           1545        NA       NA
## #  with 336,766 more rows, and 12 more variables: sched_arr_time <int>,
## #   arr_delay <dbl>, carrier <chr>, flight <int>, tailnum <chr>,
## #   origin <chr>, dest <chr>, air_time <dbl>, distance <dbl>, hour <dbl>,
## #   minute <dbl>, time_hour <dttm>

2

arrange(flights, desc(dep_delay))

## # A tibble: 336,776 x 19
##     year month   day dep_time sched_dep_time dep_delay arr_time
##    <int> <int> <int>    <int>          <int>     <dbl>    <int>
##  1  2013     1     9      641            900      1301     1242
##  2  2013     6    15     1432           1935      1137     1607
##  3  2013     1    10     1121           1635      1126     1239
##  4  2013     9    20     1139           1845      1014     1457
##  5  2013     7    22      845           1600      1005     1044
##  6  2013     4    10     1100           1900       960     1342
##  7  2013     3    17     2321            810       911      135
##  8  2013     6    27      959           1900       899     1236
##  9  2013     7    22     2257            759       898      121
## 10  2013    12     5      756           1700       896     1058
## #  with 336,766 more rows, and 12 more variables: sched_arr_time <int>,
## #   arr_delay <dbl>, carrier <chr>, flight <int>, tailnum <chr>,
## #   origin <chr>, dest <chr>, air_time <dbl>, distance <dbl>, hour <dbl>,
## #   minute <dbl>, time_hour <dttm>

3

arrange(flights, desc(distance %/% air_time))

## # A tibble: 336,776 x 19
##     year month   day dep_time sched_dep_time dep_delay arr_time
##    <int> <int> <int>    <int>          <int>     <dbl>    <int>
##  1  2013     5    25     1709           1700         9     1923
##  2  2013     3    23     1914           1910         4     2045
##  3  2013     5    13     2040           2025        15     2225
##  4  2013     7     2     1558           1513        45     1745
##  5  2013     1    12     1559           1600        -1     1849
##  6  2013     1    29     1117           1125        -8     1535
##  7  2013     1    29     1649           1550        59     2104
##  8  2013     1    29     1659           1700        -1     2138
##  9  2013    11     5     1454           1455        -1     1913
## 10  2013    11     5     2023           2030        -7       56
## #  with 336,766 more rows, and 12 more variables: sched_arr_time <int>,
## #   arr_delay <dbl>, carrier <chr>, flight <int>, tailnum <chr>,
## #   origin <chr>, dest <chr>, air_time <dbl>, distance <dbl>, hour <dbl>,
## #   minute <dbl>, time_hour <dttm>

4

arrange(flights, desc(air_time))

## # A tibble: 336,776 x 19
##     year month   day dep_time sched_dep_time dep_delay arr_time
##    <int> <int> <int>    <int>          <int>     <dbl>    <int>
##  1  2013     3    17     1337           1335         2     1937
##  2  2013     2     6      853            900        -7     1542
##  3  2013     3    15     1001           1000         1     1551
##  4  2013     3    17     1006           1000         6     1607
##  5  2013     3    16     1001           1000         1     1544
##  6  2013     2     5      900            900         0     1555
##  7  2013    11    12      936            930         6     1630
##  8  2013     3    14      958           1000        -2     1542
##  9  2013    11    20     1006           1000         6     1639
## 10  2013     3    15     1342           1335         7     1924
## #  with 336,766 more rows, and 12 more variables: sched_arr_time <int>,
## #   arr_delay <dbl>, carrier <chr>, flight <int>, tailnum <chr>,
## #   origin <chr>, dest <chr>, air_time <dbl>, distance <dbl>, hour <dbl>,
## #   minute <dbl>, time_hour <dttm>

5.5.2 Exercises

1

transmute(flights,
       sched_dep_time = (sched_dep_time %/% 100) * 60 + sched_dep_time %% 100,
       dep_time = (dep_time %/% 100) * 60 + dep_time %% 100)

## # A tibble: 336,776 x 2
##    sched_dep_time dep_time
##             <dbl>    <dbl>
##  1            315      317
##  2            329      333
##  3            340      342
##  4            345      344
##  5            360      354
##  6            358      354
##  7            360      355
##  8            360      357
##  9            360      357
## 10            360      358
## #  with 336,766 more rows

2

flights2 <- select(flights, air_time, arr_time, dep_time)
mutate(flights2, air_time_new = arr_time - dep_time)

## # A tibble: 336,776 x 4
##    air_time arr_time dep_time air_time_new
##       <dbl>    <int>    <int>        <int>
##  1      227      830      517          313
##  2      227      850      533          317
##  3      160      923      542          381
##  4      183     1004      544          460
##  5      116      812      554          258
##  6      150      740      554          186
##  7      158      913      555          358
##  8       53      709      557          152
##  9      140      838      557          281
## 10      138      753      558          195
## #  with 336,766 more rows

Since dep_time and arr_time are numerical representations of the specific time rather than acutal minutes, they are not the same.

5.7.1 Exercises

2

flights %>%
  group_by(tailnum) %>%
  summarize(prop_on_time = sum(arr_delay <= 30, na.rm = TRUE) / n(),
            mean_arr_delay = mean(arr_delay, na.rm = TRUE),
            flights = n()) %>%
  arrange(prop_on_time, desc(mean_arr_delay))

## # A tibble: 4,044 x 4
##    tailnum prop_on_time mean_arr_delay flights
##    <chr>          <dbl>          <dbl>   <int>
##  1 N844MH             0            320       1
##  2 N911DA             0            294       1
##  3 N922EV             0            276       1
##  4 N587NW             0            264       1
##  5 N851NW             0            219       1
##  6 N928DN             0            201       1
##  7 N7715E             0            188       1
##  8 N654UA             0            185       1
##  9 N427SW             0            157       1
## 10 N136DL             0            146       1
## #  with 4,034 more rows
…
